Bulk Analysis – GO & KEGG for Age-DE Genes
…
ego_up_df <- as.data.frame(ego_up_simpl)

ego_up_genes_long <- ego_up_df %>%
  dplyr::select(ID, Description, p.adjust, geneID) %>%
  tidyr::separate_rows(geneID, sep = "/") %>%
  dplyr::rename(SYMBOL = geneID)
  
ego_up_genes_long

# A tibble: 243 × 4
   ID         Description                                        p.adjust SYMBOL
   <chr>      <chr>                                                 <dbl> <chr> 
 1 GO:0002476 antigen processing and presentation of endogenous…  6.68e-5 H2-Q6 
 2 GO:0002476 antigen processing and presentation of endogenous…  6.68e-5 H2-D1 
 3 GO:0002476 antigen processing and presentation of endogenous…  6.68e-5 H2-K1 
 4 GO:0002476 antigen processing and presentation of endogenous…  6.68e-5 H2-Q7 
 5 GO:0002476 antigen processing and presentation of endogenous…  6.68e-5 H2-T22
 6 GO:0002476 antigen processing and presentation of endogenous…  6.68e-5 Tap2  
 7 GO:0001906 cell killing                                        1.67e-4 H2-Q6 
 8 GO:0001906 cell killing                                        1.67e-4 Camp  
 9 GO:0001906 cell killing                                        1.67e-4 H2-D1 
10 GO:0001906 cell killing                                        1.67e-4 H2-K1 
# ℹ 233 more rows

ego_up_genes_annot <- ego_up_genes_long %>%
  left_join(
    res_age_df %>%
      dplyr::select(gene, log2FoldChange, padj),
    by = c("SYMBOL" = "gene")
  )

ego_up_genes_annot

# A tibble: 243 × 6
   ID         Description                 p.adjust SYMBOL log2FoldChange    padj
   <chr>      <chr>                          <dbl> <chr>           <dbl>   <dbl>
 1 GO:0002476 antigen processing and pre…  6.68e-5 H2-Q6          0.204  2.90e-3
 2 GO:0002476 antigen processing and pre…  6.68e-5 H2-D1          0.0243 2.67e-5
 3 GO:0002476 antigen processing and pre…  6.68e-5 H2-K1          0.0327 4.82e-4
 4 GO:0002476 antigen processing and pre…  6.68e-5 H2-Q7          0.110  2.06e-2
 5 GO:0002476 antigen processing and pre…  6.68e-5 H2-T22         0.0168 2.31e-2
 6 GO:0002476 antigen processing and pre…  6.68e-5 Tap2           0.0340 5.85e-3
 7 GO:0001906 cell killing                 1.67e-4 H2-Q6          0.204  2.90e-3
 8 GO:0001906 cell killing                 1.67e-4 Camp           0.197  2.52e-2
 9 GO:0001906 cell killing                 1.67e-4 H2-D1          0.0243 2.67e-5
10 GO:0001906 cell killing                 1.67e-4 H2-K1          0.0327 4.82e-4
# ℹ 233 more rows

top_driver_genes <- ego_up_genes_annot %>%
  arrange(p.adjust, desc(abs(log2FoldChange)))

head(top_driver_genes, 30)

# A tibble: 30 × 6
   ID         Description                 p.adjust SYMBOL log2FoldChange    padj
   <chr>      <chr>                          <dbl> <chr>           <dbl>   <dbl>
 1 GO:0002476 antigen processing and pre…  6.68e-5 H2-Q6          0.204  2.90e-3
 2 GO:0002476 antigen processing and pre…  6.68e-5 H2-Q7          0.110  2.06e-2
 3 GO:0002476 antigen processing and pre…  6.68e-5 Tap2           0.0340 5.85e-3
 4 GO:0002476 antigen processing and pre…  6.68e-5 H2-K1          0.0327 4.82e-4
 5 GO:0002476 antigen processing and pre…  6.68e-5 H2-D1          0.0243 2.67e-5
 6 GO:0002476 antigen processing and pre…  6.68e-5 H2-T22         0.0168 2.31e-2
 7 GO:0001906 cell killing                 1.67e-4 H2-Q6          0.204  2.90e-3
 8 GO:0001906 cell killing                 1.67e-4 Camp           0.197  2.52e-2
 9 GO:0001906 cell killing                 1.67e-4 Ltf            0.180  3.95e-2
10 GO:0001906 cell killing                 1.67e-4 H2-Q7          0.110  2.06e-2
# ℹ 20 more rows
…
